{
  "_class": "group",
  "do_objectID": "5F6DF6F6-A40B-4996-8616-E9FC5C02C315",
  "exportOptions": {
    "_class": "exportOptions",
    "exportFormats": [
    ],
    "includedLayerIds": [
    ],
    "layerOptions": 0,
    "shouldTrim": false
  },
  "frame": {
    "_class": "rect",
    "constrainProportions": false,
    "height": 760,
    "width": 220,
    "x": 0,
    "y": 40
  },
  "hasClickThrough": false,
  "isFlippedHorizontal": false,
  "isFlippedVertical": false,
  "isLocked": false,
  "isVisible": true,
  "layerListExpandedType": 0,
  "layers": [
    {
      "class": "shapeGroup",
      "id": "6432974C-72E5-4AF3-B5E2-5394D822BBF5"
    },
    {
      "class": "group",
      "id": "12F988E6-718A-4836-9CCA-4AE4BF7C7BB9"
    },
    {
      "class": "group",
      "id": "3D40918B-DFAA-43A5-A8D8-789A3043D9DF"
    }
  ],
  "name": "contextual-sidebar",
  "nameIsFixed": true,
  "resizingConstraint": 18,
  "resizingType": 0,
  "rotation": 0,
  "shouldBreakMaskChain": false,
  "style": {
    "_class": "style",
    "endDecorationType": 0,
    "miterLimit": 10,
    "startDecorationType": 0
  }
}