{
  "_class": "group",
  "do_objectID": "AA3B235F-2B05-4671-95E1-84992F60B360",
  "exportOptions": {
    "_class": "exportOptions",
    "exportFormats": [
    ],
    "includedLayerIds": [
    ],
    "layerOptions": 0,
    "shouldTrim": false
  },
  "frame": {
    "_class": "rect",
    "constrainProportions": false,
    "height": 51,
    "width": 365,
    "x": 0,
    "y": 1.000000000000004
  },
  "hasClickThrough": false,
  "isFlippedHorizontal": false,
  "isFlippedVertical": false,
  "isLocked": false,
  "isVisible": true,
  "layerListExpandedType": 2,
  "layers": [
    {
      "class": "group",
      "id": "3A68FC9B-B1A3-4E2B-BFDC-FA4281C51721"
    },
    {
      "class": "group",
      "id": "98720BD6-89BB-4E8F-A9EC-7C65913CFA6D"
    },
    {
      "class": "group",
      "id": "E87BB9B7-828C-4198-9D89-FF384F2E1FFF"
    },
    {
      "class": "group",
      "id": "5D0FDB45-8302-4152-A662-EC31871015EE"
    }
  ],
  "name": "tabs",
  "nameIsFixed": true,
  "resizingConstraint": 41,
  "resizingType": 1,
  "rotation": 0,
  "shouldBreakMaskChain": false,
  "style": {
    "_class": "style",
    "endDecorationType": 0,
    "miterLimit": 10,
    "startDecorationType": 0
  }
}