{
  "_class": "group",
  "do_objectID": "2621B651-DC3B-4B6F-AC36-B2698FD5E7C2",
  "exportOptions": {
    "_class": "exportOptions",
    "exportFormats": [
    ],
    "includedLayerIds": [
    ],
    "layerOptions": 0,
    "shouldTrim": false
  },
  "frame": {
    "_class": "rect",
    "constrainProportions": false,
    "height": 24,
    "width": 638,
    "x": 0,
    "y": 12
  },
  "hasClickThrough": false,
  "isFlippedHorizontal": false,
  "isFlippedVertical": false,
  "isLocked": false,
  "isVisible": true,
  "layerListExpandedType": 0,
  "layers": [
    {
      "class": "text",
      "id": "A615AA01-5D97-4740-B64D-07641109E825"
    },
    {
      "class": "text",
      "id": "AA3CA1E4-917D-458A-9B21-B8826F1DBE43"
    },
    {
      "class": "shapeGroup",
      "id": "C518DF20-8F09-4216-B1FF-AB6C18E36118"
    },
    {
      "class": "text",
      "id": "CDB387C0-1B6A-496D-91C8-AB8C9374D272"
    },
    {
      "class": "text",
      "id": "38A5F684-6114-44AA-88FB-AD132BB3DC13"
    },
    {
      "class": "symbolInstance",
      "id": "DE495500-E198-4A9F-96B9-152CDDDE0EE1"
    }
  ],
  "name": "left-aligned",
  "nameIsFixed": true,
  "resizingConstraint": 9,
  "resizingType": 0,
  "rotation": 0,
  "shouldBreakMaskChain": false,
  "style": {
    "_class": "style",
    "endDecorationType": 0,
    "miterLimit": 10,
    "startDecorationType": 0
  }
}