{
  "_class": "group",
  "do_objectID": "FFFCD4E9-9A50-4752-948A-30AF19E8DF45",
  "exportOptions": {
    "_class": "exportOptions",
    "exportFormats": [
    ],
    "includedLayerIds": [
    ],
    "layerOptions": 0,
    "shouldTrim": false
  },
  "frame": {
    "_class": "rect",
    "constrainProportions": false,
    "height": 8,
    "width": 312,
    "x": 0,
    "y": 20
  },
  "hasClickThrough": false,
  "isFlippedHorizontal": false,
  "isFlippedVertical": false,
  "isLocked": false,
  "isVisible": true,
  "layerListExpandedType": 2,
  "layers": [
    {
      "class": "shapeGroup",
      "id": "D60255EA-D874-4E72-9C30-8480908B7EA3"
    },
    {
      "class": "shapeGroup",
      "id": "85E63978-9E87-4D91-BA7D-1248E28B721F"
    },
    {
      "class": "shapeGroup",
      "id": "DE59BFB5-E099-4330-A607-D21E8E7A98B1"
    },
    {
      "class": "shapeGroup",
      "id": "B593C790-179E-4D06-88ED-754A8EFD32BC"
    },
    {
      "class": "shapeGroup",
      "id": "A040613F-44E3-4EC3-BB38-BE4902B3409F"
    },
    {
      "class": "shapeGroup",
      "id": "C6EF341F-2F22-43B9-A9AC-B6B65F180F44"
    },
    {
      "class": "shapeGroup",
      "id": "955890E1-3971-4B34-90A4-D49E1882DACF"
    }
  ],
  "name": "Group 13",
  "nameIsFixed": false,
  "resizingConstraint": 63,
  "resizingType": 0,
  "rotation": 0,
  "shouldBreakMaskChain": false,
  "style": {
    "_class": "style",
    "endDecorationType": 0,
    "miterLimit": 10,
    "shadows": [
      {
        "_class": "shadow",
        "blurRadius": 2,
        "color": {
          "_class": "color",
          "alpha": 0.5,
          "blue": 0.7294117647058823,
          "green": 0.7294117647058823,
          "red": 0.7294117647058823
        },
        "contextSettings": {
          "_class": "graphicsContextSettings",
          "blendMode": 0,
          "opacity": 1
        },
        "isEnabled": true,
        "offsetX": 0,
        "offsetY": 1,
        "spread": 0
      }
    ],
    "startDecorationType": 0
  }
}