{
  "_class": "group",
  "do_objectID": "8C537D7D-8EFF-48EF-9B43-4C815727A061",
  "exportOptions": {
    "_class": "exportOptions",
    "exportFormats": [
    ],
    "includedLayerIds": [
    ],
    "layerOptions": 0,
    "shouldTrim": false
  },
  "frame": {
    "_class": "rect",
    "constrainProportions": false,
    "height": 28,
    "width": 527,
    "x": 607,
    "y": 1402
  },
  "hasClickThrough": false,
  "isFlippedHorizontal": false,
  "isFlippedVertical": false,
  "isLocked": false,
  "isVisible": true,
  "layerListExpandedType": 2,
  "layers": [
    {
      "class": "shapeGroup",
      "id": "0A27DE7B-8B58-4495-885B-665BC6394B74"
    },
    {
      "class": "shapeGroup",
      "id": "2C0AD033-00E5-4109-9A64-DC4D13A4DA7D"
    },
    {
      "class": "shapeGroup",
      "id": "F3FA547A-92FB-47D1-B575-1657D72184B4"
    },
    {
      "class": "shapeGroup",
      "id": "1ECE869B-D535-46F9-980A-0FB5BD2F41A0"
    },
    {
      "class": "text",
      "id": "263984E9-4E30-4584-88D3-551E378A0468"
    }
  ],
  "name": "new_epic copy 18",
  "nameIsFixed": true,
  "resizingConstraint": 63,
  "resizingType": 0,
  "rotation": 0,
  "shouldBreakMaskChain": false,
  "style": {
    "_class": "style",
    "endDecorationType": 0,
    "miterLimit": 10,
    "startDecorationType": 0
  }
}