{
  "_class": "group",
  "do_objectID": "116B26F8-F147-48F0-B4D9-DEE4359E0654",
  "exportOptions": {
    "_class": "exportOptions",
    "exportFormats": [
    ],
    "includedLayerIds": [
    ],
    "layerOptions": 0,
    "shouldTrim": false
  },
  "frame": {
    "_class": "rect",
    "constrainProportions": false,
    "height": 2069,
    "width": 11,
    "x": 1249,
    "y": 148
  },
  "hasClickThrough": false,
  "isFlippedHorizontal": false,
  "isFlippedVertical": false,
  "isLocked": false,
  "isVisible": true,
  "layerListExpandedType": 0,
  "layers": [
    {
      "class": "shapeGroup",
      "id": "5A75FDD9-BA59-43C5-BB02-A2737B6EFFBA"
    },
    {
      "class": "shapeGroup",
      "id": "F138DFB7-1517-4499-9A69-15C67EB988C5"
    },
    {
      "class": "shapeGroup",
      "id": "2B0A7765-B055-4AA5-8546-7E7DD900099F"
    },
    {
      "class": "shapeGroup",
      "id": "C66CEEC0-981A-4ECC-9762-17734EFDCCC1"
    }
  ],
  "name": "milestone",
  "nameIsFixed": true,
  "resizingConstraint": 63,
  "resizingType": 0,
  "rotation": 0,
  "shouldBreakMaskChain": false,
  "style": {
    "_class": "style",
    "endDecorationType": 0,
    "miterLimit": 10,
    "startDecorationType": 0
  }
}