{
  "propertyPanelToggleStates" : {
    "Filters" : false
  },
  "deviceOrientation" : 0,
  "sharedPrototype" : 0,
  "contentScale" : 1,
  "deviceType" : "desktop-safari-1280-800",
  "selectedHand" : "",
  "updateDelay" : 0.3,
  "deviceScale" : 1,
  "foldedCodeRanges" : [

  ],
  "orientation" : 0,
  "fullScreen" : false
}