{
  "_class": "group",
  "do_objectID": "EF03AC3D-3339-4E69-8A84-F6813493BA14",
  "exportOptions": {
    "_class": "exportOptions",
    "exportFormats": [
    ],
    "includedLayerIds": [
    ],
    "layerOptions": 0,
    "shouldTrim": false
  },
  "frame": {
    "_class": "rect",
    "constrainProportions": false,
    "height": 760,
    "width": 220,
    "x": 0,
    "y": 40
  },
  "hasClickThrough": false,
  "isFlippedHorizontal": false,
  "isFlippedVertical": false,
  "isLocked": false,
  "isVisible": true,
  "layerListExpandedType": 2,
  "layers": [
    {
      "class": "shapeGroup",
      "id": "F59CCBBB-D58E-4BC1-8317-3B7F0C3782FD"
    },
    {
      "class": "group",
      "id": "AC2A4E4F-81F9-4C2A-803A-31F0BBEFE6DE"
    },
    {
      "class": "group",
      "id": "0426D66E-70D7-4312-B69F-7553EF5D78AE"
    }
  ],
  "name": "contextual-sidebar",
  "nameIsFixed": true,
  "resizingConstraint": 18,
  "resizingType": 0,
  "rotation": 0,
  "shouldBreakMaskChain": false,
  "style": {
    "_class": "style",
    "endDecorationType": 0,
    "miterLimit": 10,
    "startDecorationType": 0
  }
}