{
  "_class": "group",
  "do_objectID": "93A21DBB-A725-434F-975B-201D31F24302",
  "exportOptions": {
    "_class": "exportOptions",
    "exportFormats": [
    ],
    "includedLayerIds": [
    ],
    "layerOptions": 0,
    "shouldTrim": false
  },
  "frame": {
    "_class": "rect",
    "constrainProportions": false,
    "height": 625,
    "width": 1448,
    "x": 11,
    "y": 0
  },
  "hasClickThrough": false,
  "isFlippedHorizontal": false,
  "isFlippedVertical": false,
  "isLocked": false,
  "isVisible": true,
  "layerListExpandedType": 2,
  "layers": [
    {
      "class": "shapeGroup",
      "id": "F6BFA9C6-F49A-48B0-AF70-D9ADAF54980C"
    },
    {
      "class": "shapeGroup",
      "id": "B58A0CA9-E46F-4B75-A361-C5BF2CF451F9"
    },
    {
      "class": "shapeGroup",
      "id": "D5958C1A-25F3-426C-8273-39FCACF388B4"
    }
  ],
  "name": "timeline-unit-weekendday-bg",
  "nameIsFixed": true,
  "resizingConstraint": 63,
  "resizingType": 0,
  "rotation": 0,
  "shouldBreakMaskChain": false,
  "style": {
    "_class": "style",
    "endDecorationType": 0,
    "miterLimit": 10,
    "startDecorationType": 0
  }
}