{
  "_class": "group",
  "do_objectID": "D58A60F9-997B-4F74-8A2E-733EEA684D72",
  "exportOptions": {
    "_class": "exportOptions",
    "exportFormats": [
    ],
    "includedLayerIds": [
    ],
    "layerOptions": 0,
    "shouldTrim": false
  },
  "frame": {
    "_class": "rect",
    "constrainProportions": false,
    "height": 8,
    "width": 37,
    "x": 275,
    "y": 0
  },
  "hasClickThrough": false,
  "isFlippedHorizontal": true,
  "isFlippedVertical": false,
  "isLocked": false,
  "isVisible": true,
  "layerListExpandedType": 2,
  "layers": [
    {
      "class": "shapeGroup",
      "id": "547A3723-0B70-4B0B-B40D-70D3BBBB6FC1"
    },
    {
      "class": "shapeGroup",
      "id": "886E158D-6029-4B60-803F-2943EDB2C59D"
    },
    {
      "class": "shapeGroup",
      "id": "5B297AF7-F314-4322-8104-829060736DBB"
    }
  ],
  "name": "Group 15",
  "nameIsFixed": false,
  "resizingConstraint": 63,
  "resizingType": 0,
  "rotation": 0,
  "shouldBreakMaskChain": false,
  "style": {
    "_class": "style",
    "endDecorationType": 0,
    "miterLimit": 10,
    "startDecorationType": 0
  }
}