{
  "_class": "group",
  "do_objectID": "042DC742-8F93-4714-9485-37ACD614BB45",
  "exportOptions": {
    "_class": "exportOptions",
    "exportFormats": [
    ],
    "includedLayerIds": [
    ],
    "layerOptions": 0,
    "shouldTrim": false
  },
  "frame": {
    "_class": "rect",
    "constrainProportions": false,
    "height": 440,
    "width": 220,
    "x": 0,
    "y": 0
  },
  "hasClickThrough": false,
  "isFlippedHorizontal": false,
  "isFlippedVertical": false,
  "isLocked": false,
  "isVisible": true,
  "layerListExpandedType": 2,
  "layers": [
    {
      "class": "symbolInstance",
      "id": "BFD57658-F3A6-4675-90DB-3D6D970095EE"
    },
    {
      "class": "symbolInstance",
      "id": "653D9CD2-AF19-48AF-B6E6-D3A1752CEC0D"
    },
    {
      "class": "symbolInstance",
      "id": "921E02FC-4AE1-42C0-9312-1CE8EC8994CE"
    },
    {
      "class": "symbolInstance",
      "id": "2D4C8932-73DA-4096-A18D-AD8779F8C446"
    },
    {
      "class": "symbolInstance",
      "id": "320AD701-5656-431D-BDA8-EA858650BD19"
    },
    {
      "class": "symbolInstance",
      "id": "349045DD-FA30-406B-99BB-288978C11262"
    },
    {
      "class": "symbolInstance",
      "id": "9C704964-EED3-44D6-9668-2724C05F4332"
    },
    {
      "class": "symbolInstance",
      "id": "08B6EB5E-019C-46AF-BA33-453F9A7D3AE9"
    },
    {
      "class": "symbolInstance",
      "id": "E40B1B61-2876-4797-A4D8-CDAAF12B5FBE"
    },
    {
      "class": "group",
      "id": "6595D6D6-D9C8-48C6-B2C1-AC5C788068B2"
    },
    {
      "class": "symbolInstance",
      "id": "30659104-31C6-48D5-BFD0-B1B17D4943B4"
    },
    {
      "class": "symbolInstance",
      "id": "4A9EF32A-A119-4124-AAE9-A66044B76500"
    }
  ],
  "name": "top-aligned",
  "nameIsFixed": true,
  "resizingConstraint": 11,
  "resizingType": 0,
  "rotation": 0,
  "shouldBreakMaskChain": false,
  "style": {
    "_class": "style",
    "endDecorationType": 0,
    "miterLimit": 10,
    "startDecorationType": 0
  }
}