{
  "_class": "group",
  "do_objectID": "22A27B13-CFE5-41B8-9FB0-A1626A76E6F7",
  "exportOptions": {
    "_class": "exportOptions",
    "exportFormats": [
    ],
    "includedLayerIds": [
    ],
    "layerOptions": 0,
    "shouldTrim": false
  },
  "frame": {
    "_class": "rect",
    "constrainProportions": false,
    "height": 40,
    "width": 220,
    "x": 0,
    "y": 0
  },
  "hasClickThrough": false,
  "isFlippedHorizontal": false,
  "isFlippedVertical": false,
  "isLocked": false,
  "isVisible": true,
  "layerListExpandedType": 0,
  "layers": [
    {
      "class": "shapeGroup",
      "id": "839A4142-BBBF-4A5E-A4BD-76B767578478"
    },
    {
      "class": "text",
      "id": "B211C4D1-7BF2-4A38-8EE7-15143C67A5E7"
    },
    {
      "class": "group",
      "id": "413EE764-AA02-4E6D-A571-44BCF7C122B8"
    }
  ],
  "name": "💡tab",
  "nameIsFixed": false,
  "resizingConstraint": 63,
  "resizingType": 0,
  "rotation": 0,
  "shouldBreakMaskChain": false,
  "style": {
    "_class": "style",
    "endDecorationType": 0,
    "miterLimit": 10,
    "startDecorationType": 0
  }
}