{
  "_class": "shapePath",
  "booleanOperation": -1,
  "do_objectID": "335FA9DF-CCAE-4AD8-99CB-426326BD8005",
  "edited": true,
  "exportOptions": {
    "_class": "exportOptions",
    "exportFormats": [
    ],
    "includedLayerIds": [
    ],
    "layerOptions": 0,
    "shouldTrim": false
  },
  "frame": {
    "_class": "rect",
    "constrainProportions": false,
    "height": 12,
    "width": 10,
    "x": 6,
    "y": 4
  },
  "isFlippedHorizontal": false,
  "isFlippedVertical": false,
  "isLocked": false,
  "isVisible": true,
  "layerListExpandedType": 0,
  "name": "Path",
  "nameIsFixed": false,
  "path": {
    "_class": "path",
    "isClosed": true,
    "pointRadiusBehaviour": 1,
    "points": [
      {
        "_class": "curvePoint",
        "cornerRadius": 0,
        "curveFrom": "{0.252685546875, 0}",
        "curveMode": 4,
        "curveTo": "{0.11313117283328342, 0}",
        "hasCurveFrom": false,
        "hasCurveTo": true,
        "point": "{0.252685546875, 0}"
      },
      {
        "_class": "curvePoint",
        "cornerRadius": 0,
        "curveFrom": "{0.49804913573339943, 7.4014868308343765e-17}",
        "curveMode": 4,
        "curveTo": "{0.48497430474878395, 0}",
        "hasCurveFrom": true,
        "hasCurveTo": false,
        "point": "{0.48497430474878395, 0}"
      },
      {
        "_class": "curvePoint",
        "cornerRadius": 0,
        "curveFrom": "{0.51994787495385286, 0.011889142201533476}",
        "curveMode": 4,
        "curveTo": "{0.51060380856532783, 0.0042679168788691451}",
        "hasCurveFrom": false,
        "hasCurveTo": true,
        "point": "{0.51994787495385286, 0.011889142201533476}"
      },
      {
        "_class": "curvePoint",
        "cornerRadius": 0,
        "curveFrom": "{0.99458362311798221, 0.39901246009581559}",
        "curveMode": 4,
        "curveTo": "{0.98497357020506882, 0.39117429033473794}",
        "hasCurveFrom": true,
        "hasCurveTo": false,
        "point": "{0.98497357020506882, 0.39117429033473794}"
      },
      {
        "_class": "curvePoint",
        "cornerRadius": 0,
        "curveFrom": "{0.99999999999999978, 0.42095181479987104}",
        "curveMode": 4,
        "curveTo": "{0.99999999999999978, 0.40974596747699482}",
        "hasCurveFrom": false,
        "hasCurveTo": true,
        "point": "{0.99999999999999978, 0.42095181479987104}"
      },
      {
        "_class": "curvePoint",
        "cornerRadius": 0,
        "curveFrom": "{1, 0.88807118745769831}",
        "curveMode": 4,
        "curveTo": "{1, 0.75}",
        "hasCurveFrom": true,
        "hasCurveTo": false,
        "point": "{1, 0.75}"
      },
      {
        "_class": "curvePoint",
        "cornerRadius": 0,
        "curveFrom": "{0.69999999999999996, 1}",
        "curveMode": 4,
        "curveTo": "{0.86568542494923795, 1}",
        "hasCurveFrom": false,
        "hasCurveTo": true,
        "point": "{0.69999999999999996, 1}"
      },
      {
        "_class": "curvePoint",
        "cornerRadius": 0,
        "curveFrom": "{0.13431457505076203, 1}",
        "curveMode": 4,
        "curveTo": "{0.29999999999999999, 1}",
        "hasCurveFrom": true,
        "hasCurveTo": false,
        "point": "{0.29999999999999999, 1}"
      },
      {
        "_class": "curvePoint",
        "cornerRadius": 0,
        "curveFrom": "{0, 0.75}",
        "curveMode": 4,
        "curveTo": "{0, 0.88807118745769831}",
        "hasCurveFrom": false,
        "hasCurveTo": true,
        "point": "{0, 0.75}"
      },
      {
        "_class": "curvePoint",
        "cornerRadius": 0,
        "curveFrom": "{0, 0.094275977361069588}",
        "curveMode": 4,
        "curveTo": "{0, 0.2105712890625}",
        "hasCurveFrom": true,
        "hasCurveTo": false,
        "point": "{0, 0.2105712890625}"
      }
    ]
  },
  "resizingConstraint": 63,
  "resizingType": 0,
  "rotation": 0,
  "shouldBreakMaskChain": false
}