{
  "_class": "group",
  "do_objectID": "F0BC8C0B-7FB8-4231-9865-B7B986327289",
  "exportOptions": {
    "_class": "exportOptions",
    "exportFormats": [
    ],
    "includedLayerIds": [
    ],
    "layerOptions": 0,
    "shouldTrim": false
  },
  "frame": {
    "_class": "rect",
    "constrainProportions": false,
    "height": 24,
    "width": 33,
    "x": 641,
    "y": 4
  },
  "hasClickThrough": false,
  "isFlippedHorizontal": false,
  "isFlippedVertical": false,
  "isLocked": false,
  "isVisible": true,
  "layerListExpandedType": 0,
  "layers": [
    {
      "class": "shapeGroup",
      "id": "81C97F53-8CBA-413F-BAA4-E38B8B9BAC9E"
    },
    {
      "class": "shapeGroup",
      "id": "23091B62-8FFB-474E-B153-2105AF07AD48"
    },
    {
      "class": "shapeGroup",
      "id": "27F98306-EE81-43F6-8295-982116A254CC"
    },
    {
      "class": "shapeGroup",
      "id": "B1C4FC78-8737-4E29-8A8A-D228AC18EEB1"
    },
    {
      "class": "shapeGroup",
      "id": "73D841B1-D702-4D37-886F-9BD91AE016A0"
    }
  ],
  "name": "Group",
  "nameIsFixed": false,
  "resizingConstraint": 63,
  "resizingType": 0,
  "rotation": 0,
  "shouldBreakMaskChain": false,
  "style": {
    "_class": "style",
    "endDecorationType": 0,
    "miterLimit": 10,
    "startDecorationType": 0
  }
}