{
  "_class": "group",
  "do_objectID": "DC07ED9B-2D2A-404A-98A0-FBCCE5EB2A03",
  "exportOptions": {
    "_class": "exportOptions",
    "exportFormats": [
    ],
    "includedLayerIds": [
    ],
    "layerOptions": 0,
    "shouldTrim": false
  },
  "frame": {
    "_class": "rect",
    "constrainProportions": false,
    "height": 32,
    "width": 520,
    "x": 8,
    "y": 4
  },
  "hasClickThrough": false,
  "isFlippedHorizontal": false,
  "isFlippedVertical": false,
  "isLocked": false,
  "isVisible": true,
  "layerListExpandedType": 2,
  "layers": [
    {
      "class": "symbolInstance",
      "id": "9B477F44-C7E6-46EF-A090-1F27B1787369"
    },
    {
      "class": "symbolInstance",
      "id": "8AF6343B-A428-4DD7-A022-67EE6940930D"
    },
    {
      "class": "symbolInstance",
      "id": "CD27FB4F-6F44-4771-B222-93B9D15B788D"
    },
    {
      "class": "symbolInstance",
      "id": "0C7A0921-6D56-4517-B3D0-D10ECCFBD5DB"
    },
    {
      "class": "symbolInstance",
      "id": "100345C3-8938-4945-8A08-25C6AAF4DAFB"
    },
    {
      "class": "symbolInstance",
      "id": "8419F3BF-E14D-4C00-B7C7-B73B3278D908"
    },
    {
      "class": "symbolInstance",
      "id": "A1E712F4-A635-4236-9D28-0CBC903A4776"
    },
    {
      "class": "symbolInstance",
      "id": "811B99F8-10AF-4A44-A625-86C008628865"
    }
  ],
  "name": "left-aligned",
  "nameIsFixed": true,
  "resizingConstraint": 25,
  "resizingType": 0,
  "rotation": 0,
  "shouldBreakMaskChain": false,
  "style": {
    "_class": "style",
    "endDecorationType": 0,
    "miterLimit": 10,
    "startDecorationType": 0
  }
}