{
  "_class": "group",
  "do_objectID": "C10676EB-C390-467E-86E4-15FDC5A5CF77",
  "exportOptions": {
    "_class": "exportOptions",
    "exportFormats": [
    ],
    "includedLayerIds": [
    ],
    "layerOptions": 0,
    "shouldTrim": false
  },
  "frame": {
    "_class": "rect",
    "constrainProportions": false,
    "height": 1587,
    "width": 1459,
    "x": 343,
    "y": 144
  },
  "hasClickThrough": false,
  "isFlippedHorizontal": false,
  "isFlippedVertical": false,
  "isLocked": false,
  "isVisible": true,
  "layerListExpandedType": 0,
  "layers": [
    {
      "class": "group",
      "id": "93A21DBB-A725-434F-975B-201D31F24302"
    },
    {
      "class": "symbolInstance",
      "id": "D26FAC7E-A4BC-4571-AD3D-59C0B15B3F05"
    },
    {
      "class": "symbolInstance",
      "id": "503F29DF-9625-4C8D-85C4-96AD32AA92B0"
    },
    {
      "class": "symbolInstance",
      "id": "678B0CB1-2FC0-4B02-A31D-C300AD59E52B"
    },
    {
      "class": "symbolInstance",
      "id": "609AC241-3A3F-4768-958E-8A7813A97220"
    },
    {
      "class": "symbolInstance",
      "id": "4A1BB44B-CD51-48F8-82F9-FB3A8E2F76B0"
    },
    {
      "class": "symbolInstance",
      "id": "69104EED-E487-48B7-91C9-C9B8E0005771"
    },
    {
      "class": "symbolInstance",
      "id": "0E943FE1-1758-4A10-9801-95550D7684E0"
    },
    {
      "class": "symbolInstance",
      "id": "F8E6BEAD-81A0-4D69-90DB-20387F4E0F39"
    },
    {
      "class": "symbolInstance",
      "id": "8B6BFA9B-510E-4E2E-9494-B391FE3FBE7D"
    },
    {
      "class": "symbolInstance",
      "id": "CA1B025F-564A-4D4A-ADB0-76744A20E3BD"
    },
    {
      "class": "symbolInstance",
      "id": "C2563A3C-B4EC-44C5-A365-248477E0DDD7"
    },
    {
      "class": "symbolInstance",
      "id": "DD0FCADA-D005-4533-A0BB-AD6BF2C45C84"
    },
    {
      "class": "symbolInstance",
      "id": "1538A02D-2447-48DA-BA3B-70B2D8A9341D"
    },
    {
      "class": "symbolInstance",
      "id": "49E38A09-482E-445E-A448-2B6FD690EAE5"
    },
    {
      "class": "symbolInstance",
      "id": "43EB7CA6-C5D9-4A22-B4D5-E08CA1EFE42C"
    },
    {
      "class": "symbolInstance",
      "id": "37478B60-F299-4375-9868-F4E5A9C47B6C"
    },
    {
      "class": "symbolInstance",
      "id": "6B6B9251-9EC4-43F9-A624-C4861649778C"
    },
    {
      "class": "symbolInstance",
      "id": "022945E4-8440-4D60-A130-5E0BE6FFCC63"
    },
    {
      "class": "symbolInstance",
      "id": "1DD73891-B8B6-44AC-95C1-A4DC7FF84E56"
    },
    {
      "class": "symbolInstance",
      "id": "B4C7C3FF-F4B2-43A1-AC89-B5924B57128C"
    },
    {
      "class": "symbolInstance",
      "id": "E9F8C660-5CEB-4842-A61C-0EE016773C10"
    },
    {
      "class": "symbolInstance",
      "id": "0377074F-2115-42FB-85A9-A6EBDB004756"
    },
    {
      "class": "symbolInstance",
      "id": "CE79A0AB-68B1-4C30-8CD0-D6FD7F6EFECB"
    },
    {
      "class": "symbolInstance",
      "id": "51F8AB55-F5B4-41A1-B2F6-A12CBCE3CC93"
    },
    {
      "class": "symbolInstance",
      "id": "9E85C2A1-31EB-4F9C-A9E9-4F81F3110800"
    },
    {
      "class": "symbolInstance",
      "id": "68040114-50DF-4AA8-AA6C-1576775DBD29"
    },
    {
      "class": "symbolInstance",
      "id": "6C3A8C1A-E1D5-4C8B-B9BE-FC452453DE47"
    },
    {
      "class": "symbolInstance",
      "id": "EDD2DABA-A494-4CAE-A6C0-601BC4DC09D7"
    },
    {
      "class": "symbolInstance",
      "id": "02B13F71-771F-43CF-B356-132EAA1A890F"
    },
    {
      "class": "symbolInstance",
      "id": "5AE32780-D1CD-45BD-9F27-B4D0D0659098"
    },
    {
      "class": "symbolInstance",
      "id": "6786CA8F-BBD9-4636-BA90-CA451EBAE05C"
    },
    {
      "class": "symbolInstance",
      "id": "8EBE0D34-DB43-4541-AF83-68E626F118B8"
    },
    {
      "class": "symbolInstance",
      "id": "B67ABCA1-30B9-4E60-BE83-15C6DF5DF6C8"
    },
    {
      "class": "symbolInstance",
      "id": "C69E2C22-A480-45F6-B5C2-D6E4F459D00B"
    },
    {
      "class": "symbolInstance",
      "id": "EF88EE2F-ED97-4886-82C1-F34AA8252AE9"
    },
    {
      "class": "symbolInstance",
      "id": "9223B739-7B2A-45BE-A879-ADFDD85387BA"
    },
    {
      "class": "symbolInstance",
      "id": "D10508AE-B30B-4E9C-A806-3743C8B160FF"
    },
    {
      "class": "symbolInstance",
      "id": "6BA9FC70-B09C-43BC-ACE6-47A11DC13B67"
    },
    {
      "class": "symbolInstance",
      "id": "1CD52EC0-2687-4F9D-A733-22A7FA3AF244"
    },
    {
      "class": "symbolInstance",
      "id": "3AAEAA73-320E-457B-8D0C-D8E4D4C231AC"
    },
    {
      "class": "symbolInstance",
      "id": "626AF7EA-4FD6-4BC6-9B92-4908EAFC4AEC"
    },
    {
      "class": "symbolInstance",
      "id": "DBE3FE4D-A5B5-41A7-A790-1D7DF156B1E2"
    },
    {
      "class": "symbolInstance",
      "id": "A937299E-D004-4ADB-B1EB-192A47FACFD4"
    },
    {
      "class": "symbolInstance",
      "id": "DC33E88D-B65D-4921-BF25-BBB9049B1BD9"
    },
    {
      "class": "symbolInstance",
      "id": "BA417468-8C0D-46A6-977F-FFA21320FF95"
    },
    {
      "class": "symbolInstance",
      "id": "65EC3CBA-332C-4C1A-83DD-EAFDDD8D462C"
    },
    {
      "class": "symbolInstance",
      "id": "BCFBDDE1-5E61-4DA6-A3D8-7CC6AC6EEEA8"
    },
    {
      "class": "symbolInstance",
      "id": "6AF1BB2E-F787-4A8D-801B-2E309AAF8754"
    },
    {
      "class": "symbolInstance",
      "id": "77019C5F-C373-46B8-81F7-1E44A316F29A"
    },
    {
      "class": "symbolInstance",
      "id": "FCDB5F62-F81C-4DF5-B7C7-D311133430DE"
    },
    {
      "class": "symbolInstance",
      "id": "D828B7F5-3838-4812-A818-2389548630BF"
    },
    {
      "class": "symbolInstance",
      "id": "4C3CBD81-D923-48B2-B7FE-79AC0706C9CF"
    },
    {
      "class": "symbolInstance",
      "id": "3BD922CF-2D88-4C39-A019-76D52DBBDEB5"
    },
    {
      "class": "symbolInstance",
      "id": "AFCCD052-0541-4CB6-8143-4E740E6E2D3D"
    }
  ],
  "name": "weekenddays",
  "nameIsFixed": true,
  "resizingConstraint": 63,
  "resizingType": 0,
  "rotation": 0,
  "shouldBreakMaskChain": false,
  "style": {
    "_class": "style",
    "endDecorationType": 0,
    "miterLimit": 10,
    "startDecorationType": 0
  }
}